......
----------------------------------------------------------------------
Ran 6 tests in 0.000s

OK
Name             Stmts   Miss Branch BrPart  Cover   Missing
------------------------------------------------------------
Netflix.py          41      2      6      1    94%   23-24, 22->23
TestNetflix.py      29      0      0      0   100%
------------------------------------------------------------
TOTAL               70      2      6      1    96%
